{
  "result": true,
  "message": "",
  "status": 0,
  "data": {
    "datas": [
      {
        "orderId": "9096651399",
        "sapOrderType": "ZS01",
        "sapOrderTypeDesc": "ZS01-新机安装服务订单",
        "orderSource": "TMALL",
        "orderItemId": "00144208673901",
        "statusCode": "E0009",
        "statusDesc": "服务确认",
        "companyName": "1100北京大区",
        "cmmdtyQaType": "0",
        "operateItemDec": "安装",
        "createdTime": "2019-10-21 14:48:34.0",
        "cmmdtyName": "箭牌直冲马桶AE1103 300坑距 马桶AE1103+AE3354S花洒",
        "cmmdtyCtgryDec": "坐便器",
        "cmmdtyBandDec": "箭牌(ARROW)",
        "hopeArrivalTime": "2019-10-26 18:00:00.0",
        "operateTime": "2019-10-27 14:07:06.0",
        "serviceAptitudeDec": "家居服务",
        "firstSrvTime": "2019-10-27 18:00:00.0",
        "srvTime": "2019-10-31 11:00:00.0",
        "latestAssignmengtTime": "2019-10-28 09:13:17.0",
        "lastAllotedWd": null,
        "latestDoorTime": "2019-10-31 10:26:41.0",
        "finishTime": "2019-10-31 10:49:18.0",
        "confirmTime": "2019-10-31 10:50:18.0",
        "zyry1Bp": "RY00138433",
        "zyry1BpName": "吴齐才",
        "integratedDeliFlag": "0",
        "serviceSale": "",
        "wdName": "JM丽家洁",
        "accountObject": "",
        "wd": "0000967074"
      },
      {
        "orderId": "9097374805",
        "sapOrderType": "ZS06",
        "sapOrderTypeDesc": "ZS06-上门维修服务订单",
        "orderSource": "SUC_CS",
        "orderItemId": "00108842022405",
        "statusCode": "E0009",
        "statusDesc": "服务确认",
        "companyName": "1100北京大区",
        "cmmdtyQaType": "0",
        "operateItemDec": "维修",
        "createdTime": "2019-06-01 00:03:24.0",
        "cmmdtyName": "四功能明杆花洒 四功能明杆花洒AE3431S",
        "cmmdtyCtgryDec": "卫浴花洒",
        "cmmdtyBandDec": "箭牌(ARROW)",
        "hopeArrivalTime": "2019-06-03 18:00:00.0",
        "operateTime": "2019-06-03 14:50:53.0",
        "serviceAptitudeDec": "家居服务",
        "firstSrvTime": "2019-10-29 18:00:00.0",
        "srvTime": "2019-10-29 13:00:00.0",
        "latestAssignmengtTime": "2019-10-28 12:04:10.0",
        "lastAllotedWd": null,
        "latestDoorTime": "2019-10-29 11:35:05.0",
        "finishTime": "2019-10-29 11:45:10.0",
        "confirmTime": "2019-10-29 11:45:10.0",
        "zyry1Bp": "RY00138427",
        "zyry1BpName": "吴鹏飞",
        "integratedDeliFlag": "0",
        "serviceSale": "",
        "wdName": "JM丽家洁",
        "accountObject": "",
        "wd": "0000967074"
      },
      {
        "orderId": "9097119705",
        "sapOrderType": "ZS01",
        "sapOrderTypeDesc": "ZS01-新机安装服务订单",
        "orderSource": "B2C",
        "orderItemId": "00435446280601",
        "statusCode": "E0018",
        "statusDesc": "暂缓服务",
        "companyName": "1100北京大区",
        "cmmdtyQaType": "0",
        "operateItemDec": "安装",
        "createdTime": "2019-10-25 20:01:29.0",
        "cmmdtyName": "恒洁HEGII坐便器 喷射虹吸式 静音马桶 缓降盖板防臭防堵 微晶抗污釉易清洁 大冲力连体卫浴坐便器马桶 -HC0163PT 305MM坑距",
        "cmmdtyCtgryDec": "坐便器",
        "cmmdtyBandDec": "恒洁(HeGII)",
        "hopeArrivalTime": "2019-10-30 18:00:00.0",
        "operateTime": "2019-10-28 15:20:33.0",
        "serviceAptitudeDec": "家居服务",
        "firstSrvTime": "2019-10-31 18:00:00.0",
        "srvTime": "2019-10-31 18:00:00.0",
        "latestAssignmengtTime": "2019-10-28 08:58:25.0",
        "lastAllotedWd": null,
        "latestDoorTime": null,
        "finishTime": null,
        "confirmTime": null,
        "zyry1Bp": "RY00138433",
        "zyry1BpName": "吴齐才",
        "integratedDeliFlag": "0",
        "serviceSale": "",
        "wdName": "JM丽家洁",
        "accountObject": "",
        "wd": "0000967074"
      },
      {
        "orderId": "9096751254",
        "sapOrderType": "ZS01",
        "sapOrderTypeDesc": "ZS01-新机安装服务订单",
        "orderSource": "TMALL",
        "orderItemId": "00144934701301",
        "statusCode": "E0009",
        "statusDesc": "服务确认",
        "companyName": "1100北京大区",
        "cmmdtyQaType": "0",
        "operateItemDec": "安装",
        "createdTime": "2019-10-22 20:08:07.0",
        "cmmdtyName": "普通花洒 M-A00118-1D",
        "cmmdtyCtgryDec": "卫浴花洒",
        "cmmdtyBandDec": "四季沐歌(MICOE)",
        "hopeArrivalTime": "2019-10-23 09:00:00.0",
        "operateTime": "2019-10-23 11:12:29.0",
        "serviceAptitudeDec": "家居服务",
        "firstSrvTime": "2019-10-24 18:00:00.0",
        "srvTime": "2019-10-27 11:00:00.0",
        "latestAssignmengtTime": "2019-10-23 09:23:00.0",
        "lastAllotedWd": null,
        "latestDoorTime": "2019-10-27 10:33:30.0",
        "finishTime": "2019-10-27 11:26:11.0",
        "confirmTime": "2019-10-27 11:29:29.0",
        "zyry1Bp": "RY00138433",
        "zyry1BpName": "吴齐才",
        "integratedDeliFlag": "0",
        "serviceSale": "",
        "wdName": "JM丽家洁",
        "accountObject": "",
        "wd": "0000967074"
      },
      {
        "orderId": "9096920183",
        "sapOrderType": "ZS01",
        "sapOrderTypeDesc": "ZS01-新机安装服务订单",
        "orderSource": "B2C",
        "orderItemId": "00146532558001",
        "statusCode": "E0009",
        "statusDesc": "服务确认",
        "companyName": "1100北京大区",
        "cmmdtyQaType": "0",
        "operateItemDec": "安装",
        "createdTime": "2019-10-25 06:59:31.0",
        "cmmdtyName": "四季沐歌【MICOE】马桶坐便器地排陶瓷一体双档节水 自洁釉面 喷射虹吸式马桶坐便器 喷射式 300MM",
        "cmmdtyCtgryDec": "坐便器",
        "cmmdtyBandDec": "四季沐歌(MICOE)",
        "hopeArrivalTime": "2019-10-26 18:00:00.0",
        "operateTime": "2019-10-26 11:16:55.0",
        "serviceAptitudeDec": "家居服务",
        "firstSrvTime": "2019-10-27 18:00:00.0",
        "srvTime": "2019-10-26 15:00:00.0",
        "latestAssignmengtTime": "2019-10-25 09:04:18.0",
        "lastAllotedWd": null,
        "latestDoorTime": "2019-10-26 14:33:06.0",
        "finishTime": "2019-10-26 15:25:00.0",
        "confirmTime": "2019-10-26 15:25:00.0",
        "zyry1Bp": "RY00138426",
        "zyry1BpName": "田常春",
        "integratedDeliFlag": "0",
        "serviceSale": "",
        "wdName": "JM丽家洁",
        "accountObject": "",
        "wd": "0000967074"
      },
      {
        "orderId": "9096754803",
        "sapOrderType": "ZS01",
        "sapOrderTypeDesc": "ZS01-新机安装服务订单",
        "orderSource": "TMALL",
        "orderItemId": "00144943099801",
        "statusCode": "E0009",
        "statusDesc": "服务确认",
        "companyName": "1100北京大区",
        "cmmdtyQaType": "0",
        "operateItemDec": "安装",
        "createdTime": "2019-10-22 22:39:34.0",
        "cmmdtyName": "四季沐歌M-A3010-1D 简易花洒（带置物架+喷枪）",
        "cmmdtyCtgryDec": "卫浴花洒",
        "cmmdtyBandDec": "四季沐歌(MICOE)",
        "hopeArrivalTime": "2019-10-23 09:00:00.0",
        "operateTime": "2019-10-23 09:20:32.0",
        "serviceAptitudeDec": "家居服务",
        "firstSrvTime": "2019-10-24 18:00:00.0",
        "srvTime": "2019-10-25 11:00:00.0",
        "latestAssignmengtTime": "2019-10-23 08:52:03.0",
        "lastAllotedWd": null,
        "latestDoorTime": "2019-10-25 10:55:42.0",
        "finishTime": "2019-10-25 11:59:17.0",
        "confirmTime": "2019-10-25 11:59:17.0",
        "zyry1Bp": "RY00138433",
        "zyry1BpName": "吴齐才",
        "integratedDeliFlag": "0",
        "serviceSale": "",
        "wdName": "JM丽家洁",
        "accountObject": "",
        "wd": "0000967074"
      },
      {
        "orderId": "9092628792",
        "sapOrderType": "ZS06",
        "sapOrderTypeDesc": "ZS06-上门维修服务订单",
        "orderSource": "SUC_APP",
        "orderItemId": "00341933694301",
        "statusCode": "E0009",
        "statusDesc": "服务确认",
        "companyName": "1100北京苏宁",
        "cmmdtyQaType": "0",
        "operateItemDec": "维修",
        "createdTime": "2018-11-30 09:55:46.0",
        "cmmdtyName": "法恩莎（FAENZA） 马桶 FB16127大力神静音冲水抽水坐便器 坐厕虹吸式座便 300mm地排水 白色 400MM（赠全套原厂配件）",
        "cmmdtyCtgryDec": "坐便器",
        "cmmdtyBandDec": "法恩莎(FAENZA)",
        "hopeArrivalTime": "2018-12-07 09:00:00.0",
        "operateTime": "2018-12-07 08:59:30.0",
        "serviceAptitudeDec": "家居服务",
        "firstSrvTime": "2019-09-09 18:00:00.0",
        "srvTime": "2019-10-25 18:00:00.0",
        "latestAssignmengtTime": "2019-10-25 09:14:43.0",
        "lastAllotedWd": null,
        "latestDoorTime": "2019-10-25 17:09:13.0",
        "finishTime": "2019-10-25 17:29:38.0",
        "confirmTime": "2019-10-25 17:29:38.0",
        "zyry1Bp": "RY00138433",
        "zyry1BpName": "吴齐才",
        "integratedDeliFlag": "0",
        "serviceSale": "",
        "wdName": "JM丽家洁",
        "accountObject": "",
        "wd": "0000967074"
      },
      {
        "orderId": "9096802172",
        "sapOrderType": "ZS01",
        "sapOrderTypeDesc": "ZS01-新机安装服务订单",
        "orderSource": "TMALL",
        "orderItemId": "00145012609101",
        "statusCode": "E0009",
        "statusDesc": "服务确认",
        "companyName": "1100北京大区",
        "cmmdtyQaType": "0",
        "operateItemDec": "安装",
        "createdTime": "2019-10-23 19:47:34.0",
        "cmmdtyName": "四季沐歌马桶 ZD008X旋涡式马桶 300MM",
        "cmmdtyCtgryDec": "坐便器",
        "cmmdtyBandDec": "四季沐歌(MICOE)",
        "hopeArrivalTime": "2019-10-24 18:00:00.0",
        "operateTime": "2019-10-24 10:18:05.0",
        "serviceAptitudeDec": "家居服务",
        "firstSrvTime": "2019-10-25 18:00:00.0",
        "srvTime": "2019-10-25 18:00:00.0",
        "latestAssignmengtTime": "2019-10-24 08:50:48.0",
        "lastAllotedWd": null,
        "latestDoorTime": "2019-10-25 09:45:48.0",
        "finishTime": "2019-10-25 09:48:51.0",
        "confirmTime": "2019-10-25 09:48:51.0",
        "zyry1Bp": "RY00138427",
        "zyry1BpName": "吴鹏飞",
        "integratedDeliFlag": "0",
        "serviceSale": "",
        "wdName": "JM丽家洁",
        "accountObject": "",
        "wd": "0000967074"
      },
      {
        "orderId": "9093392059",
        "sapOrderType": "ZS01",
        "sapOrderTypeDesc": "ZS01-新机安装服务订单",
        "orderSource": "TMALL",
        "orderItemId": "00119907442401",
        "statusCode": "E0009",
        "statusDesc": "服务确认",
        "companyName": "1100北京苏宁",
        "cmmdtyQaType": "0",
        "operateItemDec": "安装",
        "createdTime": "2019-09-16 17:01:08.0",
        "cmmdtyName": "HOROW希箭C系虹吸马桶 C265 400MM",
        "cmmdtyCtgryDec": "坐便器",
        "cmmdtyBandDec": "希箭(HOROW)",
        "hopeArrivalTime": "2019-09-20 18:00:00.0",
        "operateTime": "2019-09-20 08:40:15.0",
        "serviceAptitudeDec": "家居服务",
        "firstSrvTime": "2019-09-18 18:00:00.0",
        "srvTime": "2019-10-23 17:00:00.0",
        "latestAssignmengtTime": "2019-10-23 17:28:59.0",
        "lastAllotedWd": null,
        "latestDoorTime": "2019-10-23 17:33:23.0",
        "finishTime": "2019-10-23 17:36:46.0",
        "confirmTime": "2019-10-23 17:36:46.0",
        "zyry1Bp": "RY00138422",
        "zyry1BpName": "冯梓阳",
        "integratedDeliFlag": "0",
        "serviceSale": "",
        "wdName": "JM丽家洁",
        "accountObject": "",
        "wd": "0000967074"
      },
      {
        "orderId": "9092672180",
        "sapOrderType": "ZS01",
        "sapOrderTypeDesc": "ZS01-新机安装服务订单",
        "orderSource": "B2C",
        "orderItemId": "00119208146101",
        "statusCode": "E0009",
        "statusDesc": "服务确认",
        "companyName": "1100北京苏宁",
        "cmmdtyQaType": "0",
        "operateItemDec": "安装",
        "createdTime": "2019-09-09 01:06:31.0",
        "cmmdtyName": "HOROW希箭卫浴超漩/漩涡虹吸马桶抽水马桶座便器静音缓降自洁釉面坐便器蝉翼超薄超漩式地排300MM/400MM 5D 400MM",
        "cmmdtyCtgryDec": "坐便器",
        "cmmdtyBandDec": "希箭(HOROW)",
        "hopeArrivalTime": "2019-09-10 18:00:00.0",
        "operateTime": "2019-09-10 11:50:30.0",
        "serviceAptitudeDec": "家居服务",
        "firstSrvTime": "2019-09-11 18:00:00.0",
        "srvTime": "2019-10-23 20:00:00.0",
        "latestAssignmengtTime": "2019-10-23 17:24:34.0",
        "lastAllotedWd": null,
        "latestDoorTime": "2019-10-23 17:35:04.0",
        "finishTime": "2019-10-23 17:50:31.0",
        "confirmTime": "2019-10-23 17:50:32.0",
        "zyry1Bp": "RY00138433",
        "zyry1BpName": "吴齐才",
        "integratedDeliFlag": "0",
        "serviceSale": "",
        "wdName": "JM丽家洁",
        "accountObject": "",
        "wd": "0000967074"
      }
    ],
    "currentPage": 1,
    "pageSize": 10,
    "totalCount": 16,
    "totalPages": 2,
    "errorMsg": null
  }
}